%YAML 1.1
%TAG !u! tag:unity3d.com,2011:
--- !u!114 &11400000
MonoBehaviour:
  m_ObjectHideFlags: 0
  m_CorrespondingSourceObject: {fileID: 0}
  m_PrefabInstance: {fileID: 0}
  m_PrefabAsset: {fileID: 0}
  m_GameObject: {fileID: 0}
  m_Enabled: 1
  m_EditorHideFlags: 0
  m_Script: {fileID: 11500000, guid: ae80d34c3c968a646a29d7877872a6eb, type: 3}
  m_Name: DialogConfig_11_Trade
  m_EditorClassIdentifier: 
  contents:
  - name: "\u94C1\u5320"
    content: "\u6765\u770B\u770B\u8D27\u5427\u3002"
  - name: "\u94C1\u5320"
    content: "\u54E6\uFF1F\u8981\u51FA\u552E\u4E9B\u7834\u65E7\u6B66\u5668\u5417\uFF0C\u8FD9\u8FB9\u8BF7\u3002"
  nextDialog: []
  dialogEvent: Story_11_VillageSell
